<?xml version="1.0" encoding="utf-8"?>
<!-- Generator: Adobe Illustrator 15.0.0, SVG Export Plug-In . SVG Version: 6.00 Build 0)  -->
<!DOCTYPE svg PUBLIC "-//W3C//DTD SVG 1.1//EN" "http://www.w3.org/Graphics/SVG/1.1/DTD/svg11.dtd">
<svg version="1.1" id="Layer_1" xmlns="http://www.w3.org/2000/svg" xmlns:xlink="http://www.w3.org/1999/xlink" x="0px" y="0px"
	 width="70.86px" height="71px" viewBox="0 0 70.86 71" enable-background="new 0 0 70.86 71" xml:space="preserve">
<g id="Layer_1_1_">
	<g>
		<path fill="#FFFFFF" d="M68.564,35.502l-5.773-5.774c-0.037-0.128-0.083-0.251-0.132-0.349c0,0-0.151-0.314-0.288-0.37
			c-0.064-0.023-0.185-0.014-0.295,0.004l-0.567-0.568c0.165-0.936,0.156-2.826-0.378-3.331c-0.073-0.069-0.257,0.099-0.43,0.297
			c0.041-0.352,0.056-0.695,0.045-1.032c-0.049-1.485-0.965-3.218-1.342-3.218c-0.097,0-0.174,0.091-0.235,0.223
			c-0.137-0.415-0.728-1.493-0.898-1.521c-0.152-0.025-0.497,0.313-0.626,0.446c-0.365-1.016-1.083-2.468-1.422-2.468
			c-0.106,0-0.223,0.181-0.317,0.349c-0.399-1.271-1.678-2.653-1.917-2.6c-0.062,0.013-0.116,0.08-0.161,0.172
			c-0.33-0.813-0.941-1.633-1.508-2.029c-0.305-0.213-0.777-0.487-1.165-0.614c-0.226-0.283-1.533-1.904-1.864-1.748
			c-0.111,0.053-0.121,0.399-0.1,0.766c-0.61-0.655-1.43-1.158-2.358-1.408l-1.255-0.348c-0.055-0.035-0.111-0.069-0.169-0.101
			c-0.043-0.024-0.088-0.047-0.132-0.068c0,0-1.18-0.614-1.505-0.375c-0.461-0.374-1.005-0.567-1.507-0.721l-0.125-0.039
			l-6.859-6.858L28.062,9.44c-0.018,0.007-0.037,0.014-0.054,0.021c-0.179,0.069-0.347,0.134-0.519,0.204
			c-0.26,0.106-0.495,0.249-0.706,0.425c-0.658-0.185-1.881,0.023-2.667,0.762l-0.6,0.195c-0.855,0.277-1.6,0.756-2.19,1.367
			c0-0.291-0.03-0.568-0.143-0.597c-0.283-0.074-0.833,0.476-1.045,0.709c-0.124,0.135-0.241,0.274-0.356,0.417
			c-0.438,0.293-1.388,0.977-1.388,0.977c-0.672,0.539-1.181,1.196-1.508,1.9c-0.026-0.04-0.059-0.069-0.101-0.082
			c-0.254-0.081-1.536,0.908-2.017,2.119c-0.047-0.12-0.106-0.222-0.175-0.243c-0.184-0.056-1.411,1.383-1.672,2.637
			c-0.002,0.014-0.006,0.026-0.008,0.04c-0.114-0.161-0.278-0.347-0.43-0.341c-0.269,0.008-0.595,0.625-0.595,0.625
			c-0.176,0.308-0.311,0.622-0.406,0.944l0,0c-0.467-0.097-1.045,0.88-1.045,0.88c-0.701,1.18-0.708,2.372-0.54,3.385
			c-0.234-0.258-0.568-0.571-0.741-0.482c-0.326,0.167-0.151,2.258-0.036,3.08l-0.568,0.568c-0.181-0.02-0.388-0.031-0.454,0.011
			c-0.09,0.057-0.159,0.435-0.19,0.633L2,35.502l5.715,5.715l0.136,0.377c0.238,0.66,0.513,1.221,0.84,1.705l-0.322-0.07
			l0.269,1.031c0.005,0.02,0.01,0.037,0.013,0.053c0.011,0.047,0.025,0.105,0.05,0.172c0.171,0.451,0.392,0.867,0.656,1.232
			l-0.69-0.184l0.621,1.279c0.011,0.025,0.021,0.045,0.028,0.063c0.023,0.051,0.05,0.107,0.089,0.172
			c0.317,0.512,0.761,0.906,1.318,1.166c0.011,0.004,0.022,0.01,0.033,0.014l-0.995-0.115l0.608,1.107
			c0.195,0.355,0.44,0.631,0.75,0.842c0.349,0.236,0.745,0.504,1.176,0.729c0.096,0.051,0.192,0.096,0.289,0.145l-0.615-0.086
			l0.08,0.824c0.001,0.014,0.001,0.023,0.002,0.031c0.014,0.232,0.127,0.381,0.215,0.459l0.014,0.014
			c0.032,0.029,0.08,0.074,0.144,0.119c0.746,0.516,1.486,0.926,2.244,1.238c-0.023,0.008-0.043,0.014-0.063,0.02
			c-0.018,0.008-0.038,0.014-0.061,0.02l-1.386,0.406l1.874,1.186c0.134,0.084,0.276,0.154,0.426,0.211l0.353-0.148
			c0.014-0.006,0.027-0.01,0.04-0.018c0.053-0.021,0.124-0.055,0.215-0.078c0.671-0.176,1.31-0.279,1.937-0.314
			c-0.349-0.045-0.698-0.09-1.048-0.131c-0.212-0.025-0.427-0.016-0.641-0.02c-0.332-0.01-0.643-0.088-0.925-0.266
			c-0.208-0.131-0.415-0.262-0.656-0.416c0.09-0.025,0.151-0.053,0.213-0.061c0.772-0.092,1.547-0.146,2.323-0.049
			c0.57,0.068,1.124,0.197,1.617,0.514c0.018,0.012,0.042,0.016,0.106,0.039c-0.057-0.076-0.088-0.123-0.125-0.166
			c-0.657-0.752-1.015-1.619-1.013-2.627c0-0.295-0.024-0.59-0.053-0.881c-0.025-0.25-0.054-0.502-0.254-0.742
			c0.997,0.641,2.032,3.199,1.963,4.818c-0.073-0.041-0.124-0.066-0.219-0.115c0.064,0.115,0.103,0.188,0.163,0.297
			c-0.007-0.002-0.012-0.002-0.019-0.002c0.068,0.113,0.142,0.227,0.219,0.334c0.588,0.109,1.146,0.316,1.655,0.67
			c0.038,0.027,0.083,0.039,0.126,0.059c-0.001-0.002-0.003-0.004-0.004-0.006c0,0-0.001-0.002-0.001-0.002l0,0
			c-0.063-0.064-0.121-0.133-0.19-0.191c-0.73-0.613-1.305-1.342-1.641-2.244c-0.224-0.605-0.323-1.229-0.272-1.875
			c0.003-0.039,0.01-0.078,0.017-0.115c0.001-0.006,0.013-0.01,0.043-0.025c0.055,0.066,0.115,0.135,0.171,0.207
			c0.612,0.785,1.06,1.66,1.415,2.584c0.188,0.49,0.335,0.994,0.501,1.49c0.022,0.068,0.06,0.139-0.045,0.17l0,0.002
			c0,0,0,0,0-0.002l0.006,0.008c0,0,0,0-0.001,0c0.046,0.059,0.093,0.115,0.139,0.174c-0.296,0.086-0.68,0.148-1.113,0.18
			l0.603,0.396l0.339-0.494l0.033-0.029l0.193,0.602c0.203-0.063,0.364-0.197,0.455-0.375c0.042-0.082,0.063-0.162,0.071-0.236
			c-0.207-0.355-0.366-0.732-0.486-1.131c-0.211-0.697-0.385-1.408-0.574-2.113c-0.012-0.043-0.015-0.088-0.025-0.148
			c0.043,0.018,0.067,0.021,0.085,0.035c0.689,0.523,1.346,1.088,1.903,1.756c0.249,0.301,0.471,0.621,0.64,0.975
			c0.15,0.314,0.226,0.639,0.19,0.992c-0.035,0.348-0.044,0.697-0.066,1.072c-0.082-0.027-0.163-0.047-0.241-0.076
			c-0.385-0.15-0.7-0.402-0.967-0.713c-0.021-0.027-0.042-0.053-0.062-0.078l-0.795,0.229c-0.018,0.004-0.038,0.01-0.056,0.014
			c0.406,0.148,0.785,0.379,1.14,0.697c-0.104,0.018-0.17,0.029-0.237,0.041c-0.001,0.008-0.002,0.018-0.004,0.027
			c0.304,0.078,0.611,0.146,0.91,0.24c0.302,0.092,0.586,0.23,0.879,0.436c-0.107,0.053-0.188,0.098-0.271,0.131
			c-0.649,0.26-1.327,0.299-2.011,0.227c-0.594-0.064-1.161-0.24-1.706-0.486c-0.042-0.02-0.082-0.043-0.157-0.08
			c0.383-0.207,0.756-0.307,1.137-0.422c-0.046-0.008-0.092-0.021-0.138-0.021c-0.666-0.02-1.332-0.051-1.979-0.225
			c-0.266-0.07-0.523-0.172-0.782-0.291c0.072-0.039,0.145-0.074,0.218-0.107c-0.248-0.025-0.517-0.061-0.797-0.109l-0.887,0.479
			l1.187,0.543c0.286,0.133,0.537,0.229,0.781,0.301l-0.138,0.074l1.088,0.568l0.063,0.033c0.049,0.025,0.087,0.047,0.126,0.064
			c0.654,0.297,1.279,0.475,1.91,0.541c0.053,0.006,0.104,0.01,0.156,0.014c-0.015,0.016-0.031,0.029-0.045,0.045
			c-0.025,0.021-0.05,0.047-0.078,0.074l-0.719,0.672l0.904,0.398c0.556,0.244,1.175,0.365,1.79,0.355l0,0
			c0.206-0.004,0.409-0.023,0.608-0.055l-0.621,0.523l1.09,0.373c0.393,0.135,0.796,0.191,1.233,0.174l0,0
			c0.545-0.02,1.068-0.154,1.552-0.297l0.486-0.143l6.887,6.885l7.071-7.068l0.447,0.195c0.414,0.18,0.911,0.219,1.169,0.225
			c0.359,0.01,0.974-0.105,1.44-0.32c0.293-0.135,0.775-0.559,0.775-0.559l-0.161-0.104c0.046,0.004,0.403,0.029,0.403,0.029
			c0.668,0.023,2.222-0.307,2.385-0.918c0.034-0.129-0.313-0.434-0.458-0.555c0.825-0.068,1.632-0.307,2.269-0.682l0.969-0.566
			l-0.056-0.033c0.184-0.049,0.358-0.107,0.526-0.174c0.088-0.035,0.164-0.072,0.238-0.111c0.028-0.014,0.057-0.029,0.088-0.043
			c0,0,0.869-0.408,0.869-0.58c0-0.107-0.355-0.316-0.585-0.439c-0.11,0.023-0.211,0.047-0.301,0.064
			c-0.141,0.027-0.284,0.049-0.428,0.064c0.022,0.01,0.044,0.02,0.065,0.029s0.039,0.025,0.09,0.063
			c-0.106,0.049-0.193,0.098-0.284,0.135c-0.491,0.193-1.004,0.289-1.527,0.332c-0.385,0.033-0.771,0.049-1.157,0.068
			c0.387,0.127,0.79,0.209,1.154,0.418c-1.154,0.678-3.044,0.85-4.101,0.211c0.556-0.379,1.169-0.557,1.816-0.674
			c-0.074-0.014-0.147-0.027-0.25-0.047c0.042-0.053,0.066-0.1,0.104-0.131c0.298-0.244,0.619-0.432,0.962-0.563
			c-0.008-0.002-0.015-0.004-0.023-0.008l-0.312-0.084l0.661-0.119h0.033c0.037,0,0.078-0.002,0.123-0.012l0.249-0.008l0.151-0.23
			l0.223-0.236c0.001,0,0.003,0,0.004-0.004c0.002,0,0.004-0.002,0.006-0.006c-0.27-0.023-0.54-0.057-0.809-0.104
			c-0.045-0.006-0.089-0.021-0.156-0.041c0.079-0.086,0.145-0.156,0.209-0.225c-0.001,0-0.001,0-0.001,0l0.008-0.008l-0.008,0.008
			c0.002-0.002,0.004-0.006,0.006-0.008c-0.022,0-0.043,0-0.066,0.002c-0.015,0-0.03,0.006-0.075,0.014
			c0.457-1.611,1.062-3.133,2.124-4.434c0.02,0.004,0.039,0.006,0.059,0.008c0.011,0.16,0.035,0.322,0.031,0.482
			c-0.039,1.248-0.511,2.316-1.357,3.221c-0.201,0.213-0.429,0.4-0.643,0.604c-0.03,0.027-0.05,0.066-0.072,0.104h0.002
			c-0.002,0.002-0.005,0.006-0.006,0.008c0.048-0.025,0.101-0.045,0.146-0.074c0.488-0.324,1.021-0.518,1.581-0.621
			c0.077-0.107,0.148-0.217,0.217-0.326c-0.006,0-0.011,0-0.018,0.002c0.057-0.104,0.1-0.184,0.158-0.295
			c-0.079,0.037-0.135,0.063-0.193,0.088c-0.217-1.246,0.917-4.104,1.921-4.789c-0.207,0.305-0.225,0.627-0.247,0.951
			c-0.025,0.396-0.03,0.797-0.074,1.189c-0.088,0.793-0.437,1.473-0.953,2.07c-0.054,0.063-0.106,0.125-0.149,0.203
			c0.484-0.318,1.022-0.467,1.582-0.547c0.576-0.084,1.156-0.074,1.733-0.043c0.298,0.016,0.596,0.063,0.893,0.096
			c0.004,0.018,0.008,0.033,0.011,0.051c-0.502,0.365-1.014,0.697-1.679,0.68c-0.563-0.014-1.12,0.053-1.677,0.137
			c0.686,0.025,1.394,0.137,2.108,0.328c0.072,0.02,0.126,0.043,0.162,0.061l0.011,0.004c0.146,0.061,0.309,0.145,0.337,0.176
			c0.421-0.152,0.785-0.395,1.128-0.645l0.35-0.254c0,0,0.55-0.453,0.461-0.654c-0.098-0.213-0.806-0.291-1.053-0.313
			c0.632-0.271,1.843-0.945,2.428-1.523c0.282-0.279,1.03-1.039,0.913-1.211c-0.042-0.061-0.429-0.018-0.827,0.047
			c0.089-0.051,0.177-0.104,0.264-0.162c0.764-0.506,1.754-1.533,1.899-2.471c0.02-0.121-0.392-0.072-0.714-0.018l0.052-0.025
			c0.457-0.213,0.856-0.547,1.148-1.016c0.236-0.377,0.727-1.273,0.622-1.363c-0.06-0.051-0.311-0.029-0.564,0.012
			c0.286-0.383,0.526-0.828,0.726-1.348c0,0,0.395-1.039,0.289-1.371c-0.011-0.037-0.06-0.045-0.13-0.033
			c0.238-0.391,0.444-0.824,0.622-1.307c0.025-0.068,0.036-0.131,0.044-0.168l0.037-0.166L68.564,35.502z M62.82,36.702
			c0.131-0.448,0.21-0.895,0.275-1.302l0.094-0.73l0.832,0.832L62.82,36.702z M60.022,35.694c0.108-0.764,0.479-1.387,1.041-1.903
			c0.363-0.333,0.727-0.664,1.082-1.004c0.158-0.153,0.295-0.326,0.473-0.525c-0.073,0.335-0.133,0.633-0.204,0.931
			c-0.125,0.533-0.284,1.057-0.511,1.557c-0.177,0.393-0.42,0.728-0.784,0.965c-0.14,0.092-0.274,0.192-0.415,0.279
			c-0.247,0.156-0.507,0.294-0.655,0.627C59.978,36.275,59.982,35.984,60.022,35.694z M56.239,18.658
			c0.027,0.026,0.05,0.038,0.062,0.056c0.423,0.687,0.769,1.407,0.903,2.21c0.092,0.559,0.063,1.108-0.176,1.632
			c-0.124,0.272-0.265,0.458-0.468,0.61c-0.181-0.195-0.29-0.414-0.381-0.643c-0.254-0.641-0.3-1.312-0.263-1.99
			c0.033-0.586,0.123-1.167,0.274-1.737C56.202,18.752,56.221,18.71,56.239,18.658z M42.766,14.261
			c-0.026-0.014-0.047-0.037-0.081-0.065c0.293-0.225,0.621-0.332,0.966-0.391c0.703-0.12,1.389-0.012,2.069,0.166
			c0.098,0.025,0.194,0.053,0.292,0.079c0.009-0.014,0.019-0.028,0.028-0.042c-0.091-0.087-0.183-0.174-0.275-0.262
			c0.206,0.025,0.347,0.163,0.511,0.258c0.169,0.097,0.333,0.206,0.547,0.341c-0.037-0.079-0.044-0.107-0.061-0.129
			c-0.506-0.641-0.839-1.367-1.019-2.158c-0.111-0.49-0.349-0.899-0.666-1.273c-0.054-0.064-0.107-0.128-0.136-0.22
			c0.046,0.022,0.094,0.044,0.14,0.07c1.157,0.657,1.933,1.622,2.328,2.896c0.072,0.234,0.127,0.475,0.197,0.711
			c0.042,0.145,0.083,0.292,0.147,0.426c0.102,0.216,0.223,0.421,0.449,0.539c0.064,0.034,0.151,0.076,0.103,0.159
			c-0.161,0.013-0.309,0.009-0.452,0.037c-0.309,0.061-0.618,0.133-0.925,0.21c-0.46,0.116-0.913,0.082-1.358-0.064
			c-0.308-0.102-0.6-0.242-0.894-0.463c0.716-0.408,1.448-0.544,2.243-0.438c-0.162-0.153-0.343-0.27-0.532-0.371
			c-0.039-0.021-0.119,0.021-0.172,0.049c-0.334,0.171-0.685,0.296-1.057,0.35C44.318,14.796,43.52,14.655,42.766,14.261z
			 M39.433,13.509c0.162-0.083,0.304-0.168,0.455-0.229c0.387-0.154,0.794-0.213,1.207-0.237c0.452-0.026,0.898-0.014,1.347,0.077
			c0.425,0.086,0.862,0.114,1.321,0.17C42.664,14.383,40.766,14.315,39.433,13.509z M39.254,11.339
			c0.749,0.142,1.452,0.417,2.137,0.751c0.014-0.021,0.028-0.042,0.042-0.063c-0.035-0.018-0.074-0.032-0.104-0.056
			c-0.573-0.459-1.078-0.986-1.541-1.556c-0.382-0.469-0.778-0.923-1.23-1.326c-0.023-0.02-0.04-0.046-0.095-0.11
			c0.172,0.04,0.298,0.066,0.423,0.098c0.657,0.168,1.291,0.398,1.857,0.777c0.288,0.194,0.559,0.42,0.806,0.664
			c0.166,0.164,0.285,0.379,0.409,0.581c0.208,0.338,0.393,0.691,0.606,1.025c0.206,0.322,0.465,0.599,0.763,0.856
			c-0.058-0.009-0.12-0.008-0.173-0.028c-0.274-0.104-0.557-0.191-0.814-0.326c-0.194-0.102-0.382-0.128-0.591-0.121
			c-1.353,0.049-2.652-0.201-3.899-0.721c-0.25-0.104-0.488-0.229-0.731-0.346c-0.048-0.023-0.088-0.058-0.168-0.112
			C37.748,11.168,38.502,11.197,39.254,11.339z M42.073,9.71c0.694,0.211,1.35,0.47,1.744,1.134c0.263,0.443,0.521,0.89,0.783,1.333
			c0.233,0.395,0.469,0.788,0.693,1.165C43.907,13.199,42.125,11.215,42.073,9.71z M50.375,16.526
			c0.031,0.023,0.073,0.032,0.127,0.055c-1.123,0.656-2.629,0.473-3.668-0.412c0.159-0.049,0.283-0.094,0.41-0.127
			c0.43-0.107,0.861-0.207,1.311-0.186C49.231,15.89,49.834,16.121,50.375,16.526z M54.217,21.334
			c-1.427-0.382-2.63-1.083-3.656-2.13C51.883,18.808,53.886,19.974,54.217,21.334z M53.442,19.39
			c-1.517-0.421-2.958-1.019-4.323-1.813c0.612-0.154,1.218-0.104,1.811,0.063C51.964,17.93,52.787,18.537,53.442,19.39z
			 M53.201,22.047c-0.365-0.295-0.691-0.629-0.979-1c-0.047-0.061-0.088-0.126-0.132-0.19c0.022-0.014,0.03-0.023,0.036-0.021
			c0.473,0.123,0.948,0.236,1.416,0.374c0.799,0.235,1.442,0.715,1.997,1.323c0.164,0.179,0.311,0.376,0.5,0.606
			c-0.263,0.022-0.469-0.024-0.671-0.062C54.555,22.927,53.842,22.563,53.201,22.047z M54.247,16.538
			c1.3,1.259,1.604,3.346,1.048,4.929c-0.058-0.05-0.113-0.092-0.161-0.142c-0.536-0.554-0.838-1.229-0.985-1.978
			c-0.177-0.904-0.127-1.805,0.057-2.701C54.211,16.616,54.227,16.587,54.247,16.538z M53.385,16.715
			c0.134,0.658,0.057,1.297-0.167,1.923c-0.01,0.028-0.031,0.053-0.067,0.114c-0.704-1.472-1.055-3.017-1.4-4.599
			c0.06,0.035,0.089,0.045,0.111,0.066C52.622,14.896,53.177,15.7,53.385,16.715z M52.475,18.064
			c-0.042-0.008-0.069-0.004-0.08-0.016c-0.938-0.901-1.67-1.934-1.998-3.213c-0.152-0.6-0.265-1.21-0.397-1.814
			c-0.027-0.123-0.063-0.243-0.095-0.364C51.255,14.22,52.013,16.06,52.475,18.064z M50.017,16.085
			c-0.032-0.028-0.057-0.043-0.073-0.066c-0.495-0.681-0.997-1.356-1.476-2.049c-0.156-0.225-0.262-0.488-0.362-0.746
			c-0.128-0.329-0.291-0.636-0.504-0.915c-0.198-0.258-0.412-0.503-0.62-0.754c-0.043-0.052-0.088-0.104-0.147-0.174
			C48.625,11.956,50.197,13.698,50.017,16.085z M39.217,10.697c-0.371-0.052-0.86-0.1-1.178-0.1c-0.029,0-0.059,0.001-0.088,0.001
			c-0.38,0.006-0.761,0.044-1.132,0.118l-1.28,0.254l-0.066-0.271h-0.367l-0.062,0.256l-1.201-0.239
			c-0.4-0.079-0.812-0.12-1.221-0.12c-0.002,0-0.004,0-0.006,0c-0.351,0-0.909,0.059-1.285,0.117l3.951-3.951L39.217,10.697z
			 M35.136,15.681l0.015-0.633h0.264l0.015,0.633H35.136z M35.45,16.453l0.027,1.032h-0.386l0.025-1.032H35.45z M35.167,14.48
			l0.014-0.56h0.207l0.014,0.56H35.167z M35.191,13.472l0.014-0.577h0.155l0.015,0.577H35.191z M35.214,12.568l0.011-0.424h0.117
			l0.01,0.424H35.214z M35.065,18.512h0.438l0.053,2.126h-0.545L35.065,18.512z M30.616,13.329c0.168,0.062,0.325,0.152,0.484,0.257
			c-0.787,0.459-1.624,0.656-2.521,0.583c-0.648-0.052-1.467-0.425-1.767-0.811c0.198-0.025,0.384-0.045,0.569-0.072
			c0.406-0.059,0.813-0.127,1.22-0.178c0.18-0.022,0.364-0.021,0.545-0.013C29.646,13.114,30.143,13.155,30.616,13.329z
			 M27.882,14.274c-0.582,0.34-1.193,0.496-1.84,0.516c-0.657,0.021-1.269-0.154-1.847-0.477c-0.202,0.134-0.396,0.264-0.637,0.422
			c1.098-0.122,1.775,0.078,2.313,0.426c-0.279,0.21-0.584,0.355-0.907,0.46c-0.497,0.161-0.99,0.168-1.496,0.014
			c-0.316-0.097-0.648-0.144-0.975-0.207c-0.05-0.01-0.106,0.019-0.16,0.021c-0.033,0.001-0.066-0.019-0.123-0.037
			c0.048-0.051,0.073-0.094,0.11-0.114c0.337-0.189,0.49-0.508,0.595-0.857c0.098-0.327,0.173-0.662,0.281-0.985
			c0.412-1.231,1.2-2.151,2.327-2.783c0.039-0.021,0.078-0.039,0.136-0.033c-0.059,0.071-0.118,0.142-0.179,0.212
			c-0.318,0.374-0.553,0.783-0.665,1.273c-0.177,0.775-0.501,1.49-0.993,2.121c-0.019,0.025-0.033,0.054-0.048,0.082
			c-0.002,0.004,0.003,0.013,0.014,0.05c0.353-0.221,0.697-0.438,1.042-0.656c-0.063,0.17-0.245,0.237-0.35,0.404
			c0.302-0.071,0.576-0.146,0.854-0.201c0.636-0.124,1.273-0.16,1.907,0.024C27.463,14.016,27.674,14.104,27.882,14.274z
			 M14.333,23.521c0.052-0.195,0.31-0.544,0.749-0.952c0.294-0.274,0.615-0.521,0.961-0.812c-0.22,0.059-0.403,0.108-0.601,0.162
			c0.522-1.472,2.137-2.689,4.028-2.351c-0.333,0.358-0.68,0.666-1.06,0.932c-0.375,0.263-0.767,0.504-1.147,0.78
			c0.247-0.05,0.497-0.089,0.741-0.154c0.242-0.064,0.479-0.153,0.717-0.231C17.995,22.122,16.178,23.503,14.333,23.521z
			 M23.681,16.246c-0.782,0.796-2.409,1.102-3.579,0.44C21.1,15.805,22.437,15.743,23.681,16.246z M21.443,17.627
			c-0.361,0.38-3.455,1.699-4.337,1.84C18.09,18.118,19.841,17.305,21.443,17.627z M25.226,13.435
			c0.037-0.058,0.062-0.099,0.089-0.14c0.131-0.199,0.273-0.391,0.393-0.595c0.28-0.48,0.547-0.968,0.824-1.45
			c0.083-0.145,0.178-0.282,0.271-0.42c0.237-0.352,0.548-0.615,0.941-0.776c0.241-0.099,0.484-0.189,0.757-0.295
			C28.329,11.417,26.877,13.039,25.226,13.435z M30.266,12.507c-0.552,0.068-1.104,0.103-1.661,0.068
			c-0.094-0.005-0.201,0.037-0.289,0.082c-0.359,0.187-0.729,0.34-1.138,0.4c0.383-0.271,0.676-0.623,0.922-1.014
			c0.165-0.261,0.327-0.528,0.461-0.806c0.191-0.397,0.467-0.718,0.802-0.992c0.65-0.535,1.405-0.854,2.208-1.073
			c0.151-0.041,0.305-0.074,0.457-0.11c0.005,0.018,0.012,0.035,0.018,0.052c-0.097,0.091-0.198,0.179-0.29,0.276
			c-0.261,0.277-0.53,0.548-0.772,0.842c-0.551,0.669-1.127,1.314-1.809,1.855c-0.019,0.014-0.032,0.035-0.081,0.092
			c0.095-0.036,0.149-0.051,0.2-0.076c0.758-0.374,1.55-0.642,2.391-0.758c0.617-0.085,1.232-0.081,1.846,0.031
			c0.011,0.001,0.021,0.018,0.048,0.044c-0.069,0.042-0.131,0.086-0.199,0.12C32.401,12.05,31.361,12.37,30.266,12.507z
			 M23.723,11.453c-0.09,0.105-0.148,0.169-0.201,0.236c-0.237,0.299-0.489,0.586-0.702,0.9c-0.149,0.22-0.247,0.476-0.364,0.719
			c-0.107,0.22-0.181,0.462-0.318,0.66c-0.492,0.711-1.004,1.408-1.51,2.108c-0.016,0.023-0.042,0.04-0.07,0.065
			C20.34,14.035,21.723,12.102,23.723,11.453z M20.644,12.733c-0.009,0.047-0.017,0.094-0.028,0.142
			c-0.128,0.573-0.269,1.143-0.382,1.719c-0.127,0.646-0.363,1.247-0.695,1.813c-0.344,0.585-0.764,1.111-1.241,1.592
			c-0.055,0.054-0.115,0.103-0.173,0.153C18.541,16.146,19.298,14.305,20.644,12.733z M18.811,14.213
			c-0.349,1.596-0.696,3.138-1.4,4.604C16.708,17.305,17.303,15.422,18.811,14.213z M16.327,16.593
			c0.041,0.209,0.085,0.399,0.112,0.592c0.117,0.818,0.122,1.632-0.073,2.441c-0.158,0.653-0.443,1.24-0.907,1.733
			c-0.038,0.041-0.077,0.08-0.117,0.118c-0.017,0.015-0.04,0.023-0.079,0.046C14.708,19.942,15.019,17.856,16.327,16.593z
			 M14.228,18.834c0.021-0.032,0.045-0.062,0.068-0.092c0.019,0.002,0.037,0.005,0.055,0.007c0.065,0.316,0.143,0.631,0.193,0.951
			c0.104,0.66,0.154,1.324,0.064,1.991c-0.061,0.453-0.176,0.887-0.413,1.282c-0.056,0.092-0.124,0.179-0.195,0.282
			c-0.175-0.138-0.287-0.298-0.385-0.47c-0.243-0.427-0.317-0.892-0.299-1.376c0.015-0.4,0.103-0.786,0.231-1.164
			C13.718,19.749,13.954,19.283,14.228,18.834z M11.007,22.514c0.039,0.295,0.075,0.592,0.118,0.886
			c0.062,0.417,0.179,0.82,0.314,1.22c0.136,0.402,0.243,0.813,0.357,1.221h0.527c-0.001-0.003-0.001-0.006-0.002-0.009
			c-0.141-0.726-0.247-1.456-0.278-2.195c-0.013-0.318-0.055-0.634-0.069-0.952c-0.03-0.698,0.118-1.355,0.488-2.004
			c0.063,0.095,0.11,0.157,0.147,0.224c0.906,1.619,0.959,3.265,0.223,4.937h0.27c0.356-0.563,0.753-1.093,1.235-1.557
			c0.406-0.392,0.864-0.693,1.407-0.862c0.483-0.15,0.962-0.319,1.443-0.48c0.021-0.006,0.044,0,0.105,0
			c-0.738,0.947-1.563,1.768-2.465,2.522c0.369-0.133,0.738-0.266,1.16-0.418c-0.047,0.083-0.061,0.122-0.087,0.15
			c-0.196,0.216-0.393,0.43-0.589,0.646h1.084c0.071-0.079,0.111-0.154,0.139-0.209c0.008-0.014,0.017-0.034,0.03-0.055l0.129-0.229
			l9.826-9.826l0.138-0.104c0.559-0.085,1.073-0.268,1.558-0.552l0.216-0.126c0.012,0.001,0.023,0.002,0.035,0.003
			c0.019,0.002,0.039,0.005,0.056,0.006c0.138,0.011,0.277,0.017,0.414,0.017l0,0c0.874,0,1.714-0.232,2.497-0.688
			c0,0,0.487-0.25,0.496-0.512c0.006-0.241-0.391-0.54-0.453-0.586c0.545-0.123,1.08-0.304,1.592-0.564
			c0.413-0.208,1.348-0.786,1.895-1.129l-3.489,14.555h2.253h0.283l0.125,0.251h0.739l0.091-3.667h0.633l0.087,3.417h0.117h3.324
			L35.6,11.227c0.526,0.33,1.552,0.967,1.991,1.189c0.482,0.245,0.985,0.421,1.5,0.543c-0.309,0.148-0.809,0.423-0.696,0.595
			c0.363,0.56,1.891,1.279,3.197,1.212c0.169,0,0.334-0.01,0.497-0.029c0.047-0.006,0.094-0.011,0.141-0.019
			c0.044,0.03,0.088,0.059,0.124,0.078c0.384,0.2,0.993,0.402,1.472,0.509l9.809,9.809l0.448,0.547
			c0.051,0.061,0.101,0.12,0.152,0.179h1.071c-0.238-0.264-0.479-0.523-0.709-0.804c0.4,0.047,0.751,0.238,1.137,0.335
			c-0.916-0.744-1.743-1.571-2.501-2.541c0.484,0.159,0.911,0.32,1.35,0.439c0.88,0.239,1.557,0.767,2.118,1.461
			c0.25,0.308,0.474,0.637,0.707,0.959c0.03,0.042,0.053,0.092,0.083,0.15h0.276c-0.037-0.05-0.07-0.127-0.117-0.247
			c-0.653-1.627-0.566-3.209,0.292-4.742c0.031-0.056,0.067-0.109,0.103-0.161c0.013-0.018,0.034-0.029,0.064-0.054
			c0.196,0.319,0.315,0.659,0.398,1.013c0.12,0.519,0.086,1.042,0.042,1.565c-0.043,0.513-0.082,1.029-0.142,1.541
			c-0.044,0.372-0.118,0.739-0.176,1.086c0.174,0.002,0.343,0.015,0.508,0.042c0.058-0.341,0.146-0.689,0.273-1.022
			c0.287-0.749,0.468-1.518,0.522-2.317c0.002-0.028,0.019-0.055,0.043-0.12c0.058,0.104,0.104,0.176,0.14,0.253
			c0.231,0.479,0.347,0.986,0.372,1.518c0.031,0.71-0.079,1.397-0.275,2.074c0.229,0.135,0.445,0.302,0.648,0.5
			c0.139-0.173,0.294-0.346,0.468-0.513c0.049,0.175,0.052,0.687,0.026,1.126c0.312,0.499,0.471,1.063,0.471,1.687
			c0,0.268-0.03,0.527-0.089,0.772c0.224-0.157,0.467-0.285,0.734-0.38c0.084,0.162,0.084,0.329,0.093,0.493
			c0.033,0.651-0.132,1.26-0.442,1.828c-0.403,0.741-0.969,1.333-1.638,1.833c-0.038,0.029-0.073,0.061-0.107,0.094v2.524v0.458
			h-0.458h-0.382h-0.062l-0.46,0.516l0.004,0.004l0.225-0.188l0.127-0.103h0.165h0.382h0.043c0.052-0.059,0.095-0.105,0.137-0.152
			c0.021,0.01,0.043,0.021,0.064,0.033c-0.006,0.037-0.011,0.077-0.017,0.119h0.231v0.459v0.379
			c0.172-0.466,0.477-0.875,0.937-1.227c0.284-0.217,0.56-0.445,0.834-0.673c0.27-0.222,0.528-0.454,0.696-0.775
			c-0.117,0.726-0.261,1.446-0.605,2.104c-0.087,0.167-0.208,0.32-0.335,0.459c-0.185,0.198-0.386,0.377-0.584,0.561
			c-0.328,0.303-0.663,0.6-0.943,0.98v0.918c0.266-0.375,0.564-0.715,0.952-0.977c0.459-0.311,0.904-0.645,1.355-0.967
			c0.056-0.039,0.116-0.077,0.213-0.096c-0.051,0.188-0.09,0.375-0.154,0.559c-0.24,0.688-0.635,1.281-1.14,1.795
			c-0.349,0.355-0.739,0.672-1.114,1c-0.032,0.029-0.069,0.053-0.112,0.08v0.088v0.457h-0.458h-2.044l-0.003,0.006h-0.393
			c-0.032-0.002-0.062-0.002-0.094-0.002h-0.682l-0.141,0.002l-0.067,0.207L56,42.551c-0.016,0.047-0.026,0.082-0.035,0.117
			c-0.06,0.246-0.106,0.49-0.141,0.736l-0.295,0.59L35.282,64.238L14.9,43.857l-0.146-0.246c-0.026-0.209-0.063-0.412-0.098-0.609
			c-0.018-0.094-0.035-0.188-0.05-0.283L14.54,42.33l-0.025-0.158h-0.131h-0.504c0.075,0.424,0.2,1.121,0.227,1.375
			c0.073,0.668,0.072,1.334-0.119,1.986c-0.116,0.396-0.287,0.732-0.529,1.004c-0.106-0.117-0.211-0.213-0.292-0.324
			c-0.162-0.223-0.248-0.479-0.306-0.746c-0.134-0.625-0.086-1.248,0.025-1.871c0.052-0.293,0.257-1.137,0.35-1.549h-0.299
			c-0.142,0.529-0.423,1.523-0.726,1.904c-0.173-0.41-0.383-1.391-0.447-1.904h-0.256h-0.458V41.59v-0.383V40.75h0.458
			c0.038,0,0.075-0.004,0.113-0.006c-0.229-0.344-0.233-0.893-0.016-2.148c-0.156,0.09-0.284,0.166-0.432,0.252
			c-0.221-0.203-0.284-0.426-0.341-0.649c-0.13-0.513-0.017-1.016,0.19-1.509c0.34-0.815,0.95-1.546,1.665-2.243
			c0.012-0.013,0.039-0.018,0.089-0.042c0.012,0.005,0.022,0.011,0.034,0.017c-0.103-0.135-0.224-0.249-0.366-0.343l-0.38-0.253
			l-0.018,0.013c0-0.001-0.001-0.001-0.002-0.001c-0.324,0.452-0.683,0.881-1.147,1.302c0.001-0.608,0.091-1.138,0.202-1.65
			l-0.165-0.025c-0.006,0.092-0.018,0.178-0.037,0.247c-0.177,0.004-0.336-0.063-0.488-0.148c-0.141-0.081-0.265-0.177-0.379-0.284
			c0,0.006,0,0.013,0,0.02c-1.345-1.132-1.855-2.671-1.553-3.735c0.631,0.1,1.564,0.922,1.885,1.67
			c0.247,0.413,0.319,0.564,0.373,0.775c-0.001-0.008-0.001-0.017-0.002-0.026c0.002,0,0.006-0.004,0.009-0.007V31.84v-0.23v-0.503
			l0.459,0.043c0.264,0,0.485-0.071,0.674-0.217c0.174-0.135,0.251-0.282,0.251-0.478v-2.771c0-0.194-0.078-0.342-0.251-0.477
			c-0.19-0.146-0.411-0.217-0.675-0.217H10.74v-0.459v-0.231v-0.149c-0.016,0-0.03,0-0.046,0
			C10.383,24.896,10.317,23.677,11.007,22.514z M54.993,48.295c-0.04-0.596,0.084-1.17,0.234-1.74
			c0.21-0.791,0.496-1.557,0.808-2.313c0.011-0.029,0.027-0.055,0.065-0.133c0.163,0.395,0.257,0.762,0.334,1.135
			c0.145,0.699,0.19,1.4,0.073,2.107c-0.101,0.609-0.343,1.154-0.753,1.621c-0.12,0.135-0.22,0.289-0.362,0.477
			c0.038-0.137,0.063-0.225,0.092-0.326C55.102,48.973,55.017,48.65,54.993,48.295z M57.229,42.492
			c0.063,0.002,0.125,0.006,0.199,0.012c0.12,0.324,0.185,0.658,0.243,0.99c0.095,0.543,0.152,1.088,0.076,1.637
			c-0.045,0.326-0.125,0.639-0.292,0.926c-0.115,0.195-0.198,0.281-0.397,0.398c-0.096-0.162-0.202-0.316-0.287-0.484
			c-0.188-0.373-0.292-0.773-0.331-1.188c-0.068-0.732-0.007-1.457,0.168-2.176c0.008-0.029,0.018-0.059,0.037-0.115
			C56.85,42.492,57.039,42.49,57.229,42.492z M57.326,47.146c-0.025,0.115-0.104,0.158-0.199,0.201
			C57.129,47.164,57.129,47.164,57.326,47.146z M56.337,49.482c0.072-0.287,0.274-0.25,0.48-0.213
			C56.657,49.342,56.498,49.41,56.337,49.482z M58.362,45.23c-0.111-0.289-0.056-0.475,0.181-0.607
			C58.73,45.033,58.674,45.055,58.362,45.23z M58.353,43.889c-0.339-0.434-0.51-0.887-0.646-1.396c0.157,0,0.289,0.004,0.421-0.002
			c0.097-0.004,0.194,0.025,0.271-0.094c0.031-0.051,0.172-0.029,0.292-0.047C58.668,42.889,58.556,43.373,58.353,43.889z
			 M45.963,58.811c-0.017-0.002-0.031-0.027-0.045-0.041c0.02-0.018,0.037-0.051,0.061-0.057c0.017-0.002,0.042,0.029,0.09,0.063
			C46.013,58.795,45.987,58.811,45.963,58.811z M15.484,47.275c0.076,0.385,0.115,0.773,0.074,1.162
			c-0.017,0.154-0.054,0.318-0.13,0.449c-0.075,0.131-0.212,0.225-0.341,0.352c0.014,0.049,0.038,0.131,0.063,0.213
			c-0.259-0.352-0.583-0.652-0.78-1.051c-0.199-0.404-0.32-0.83-0.358-1.275c-0.086-0.975,0.074-1.916,0.4-2.832
			c0.01-0.025,0.026-0.051,0.05-0.098c0.028,0.045,0.047,0.068,0.058,0.098C14.916,45.262,15.28,46.242,15.484,47.275z
			 M10.556,36.439c-0.005,0.068-0.022,0.137-0.034,0.205c-0.131-0.266-0.371-0.396-0.598-0.541
			c-0.154-0.098-0.303-0.204-0.456-0.301c-0.396-0.254-0.653-0.618-0.837-1.042c-0.267-0.615-0.437-1.257-0.579-1.91
			c-0.035-0.163-0.064-0.326-0.104-0.525c0.151,0.175,0.268,0.334,0.409,0.471c0.348,0.336,0.709,0.659,1.06,0.992
			c0.156,0.147,0.311,0.296,0.447,0.46C10.389,34.882,10.618,35.615,10.556,36.439z M8.123,35.167
			c0.195,0.357,0.503,0.609,0.809,0.86c0.25,0.208,0.504,0.412,0.762,0.609c0.636,0.493,0.972,1.156,1.102,1.938
			c0.058,0.346,0.061,0.689,0.004,1.043c-0.065-0.111-0.117-0.236-0.199-0.332c-0.204-0.244-0.414-0.482-0.637-0.707
			c-0.245-0.246-0.505-0.482-0.765-0.713c-0.323-0.289-0.529-0.65-0.675-1.051C8.329,36.283,8.207,35.734,8.123,35.167z
			 M10.987,40.893c-0.081,0.018-0.168,0.047-0.259,0.061c-0.34,0.051-0.341,0.049-0.61,0.262c-0.97-0.828-1.773-1.768-2.048-3.06
			c0.017-0.013,0.033-0.024,0.049-0.038c0.25,0.182,0.5,0.359,0.75,0.539c0.283,0.205,0.567,0.406,0.851,0.609
			c0.564,0.4,0.934,0.961,1.266,1.553C10.992,40.83,10.987,40.848,10.987,40.893z M9.61,27.005L9.609,26.99
			c-0.007-0.16-0.014-0.32-0.021-0.479c-0.001-0.034,0.002-0.069,0.006-0.11c0.002-0.022,0.004-0.047,0.007-0.076l0.024,0.02
			c0.107,0.084,0.263,0.22,0.403,0.364c0.094,0.095,0.18,0.194,0.242,0.284c0.171,0.22,0.389,0.543,0.528,0.905
			c0,0.003,0,0.003,0.001,0.006c0.007,0.012,0.014,0.025,0.021,0.039c0.074,0.151,0.14,0.299,0.197,0.446
			c0.178,0.339,0.292,1.32,0.292,1.52c-0.002,0.454-0.108,0.861-0.212,1.064h-0.003c-0.189-0.041-0.337-0.16-0.444-0.257
			c-0.22-0.202-0.396-0.463-0.552-0.82c-0.037-0.086-0.313-1.065-0.345-1.153c-0.029-0.163-0.052-0.329-0.068-0.5
			C9.644,27.832,9.626,27.412,9.61,27.005z M7.361,34.684l0.107,0.793c0.064,0.433,0.146,0.83,0.249,1.197l-1.174-1.172
			L7.361,34.684z M8.474,41.162c0.271,0.1,0.524,0.205,0.765,0.32c0.001,0.002,0.002,0.002,0.004,0.002
			c0.002,0.002,0.006,0.004,0.01,0.006s0.008,0.004,0.011,0.004c0.219,0.105,1.604,0.764,2.086,1.551
			c0.001,0.002,0.002,0.006,0.004,0.006c0.23,0.309,0.408,0.641,0.466,1.033c0.021,0.137,0.016,0.277,0.025,0.453
			c-0.192-0.047-0.346-0.072-0.494-0.121c-0.521-0.17-0.974-0.457-1.374-0.83C9.269,42.93,8.816,42.111,8.474,41.162z M9.321,44.043
			C9.305,44,9.298,43.955,9.278,43.881c0.066,0.016,0.111,0.018,0.149,0.037c0.816,0.355,1.604,0.766,2.31,1.314
			c0.268,0.209,0.513,0.451,0.75,0.695c0.194,0.201,0.339,0.441,0.415,0.715c0.027,0.098,0.036,0.197,0.06,0.338
			c-0.109-0.059-0.178-0.094-0.246-0.131c-0.367-0.207-0.747-0.381-1.152-0.504c-0.674-0.203-1.217-0.605-1.635-1.174
			C9.673,44.826,9.474,44.447,9.321,44.043z M9.97,46.494c-0.028-0.047-0.048-0.096-0.086-0.176
			c0.167,0.043,0.301,0.082,0.436,0.113c0.538,0.131,1.078,0.25,1.613,0.391c0.219,0.059,0.44,0.137,0.638,0.246
			c0.603,0.334,1.055,0.828,1.417,1.412c0.013,0.018,0.025,0.039,0.032,0.061c0.005,0.014,0.001,0.031,0.001,0.064
			c-0.064-0.014-0.125-0.021-0.183-0.041c-0.634-0.199-1.256-0.428-1.856-0.721c-0.32-0.154-0.652-0.285-0.975-0.434
			C10.572,47.207,10.223,46.904,9.97,46.494z M11.495,49.309c-0.215-0.146-0.394-0.34-0.544-0.615c0.081,0.01,0.121,0.01,0.158,0.02
			c1.156,0.313,2.297,0.666,3.378,1.193c0.393,0.191,0.772,0.406,1.098,0.707c0.183,0.166,0.338,0.352,0.402,0.627
			c-0.066-0.006-0.119-0.004-0.167-0.016c-1.103-0.33-2.192-0.695-3.216-1.227C12.219,49.797,11.855,49.553,11.495,49.309z
			 M12.715,51.469c-0.004-0.004-0.002-0.014-0.008-0.072c0.441,0.061,0.864,0.109,1.284,0.18c0.711,0.121,1.409,0.293,2.078,0.572
			c0.345,0.143,0.675,0.313,0.969,0.547c0.206,0.164,0.391,0.348,0.526,0.621c-0.14,0-0.261,0.012-0.38,0
			c-0.481-0.053-0.954-0.148-1.416-0.293c-1.068-0.33-2.047-0.842-2.964-1.477C12.772,51.525,12.744,51.496,12.715,51.469z
			 M17.248,52.498c-0.043-0.043-0.084-0.076-0.119-0.117c-0.11-0.125-0.211-0.26-0.328-0.377c-0.633-0.645-0.879-1.453-0.99-2.324
			c-0.073-0.563-0.095-1.125,0.051-1.68c0.033-0.129,0.084-0.25,0.141-0.414c0.602,0.76,0.961,1.58,1.167,2.473
			C17.355,50.859,17.392,52.119,17.248,52.498z M24.624,58.125c-0.047-0.031-0.095-0.059-0.143-0.088l0.003-0.051L24.624,58.125z
			 M22.526,60.152c0.094-0.086,0.164-0.16,0.242-0.223c0.796-0.643,1.712-0.902,2.723-0.842c0.066,0.004,0.147,0.023,0.192,0.068
			c0.169,0.164,0.326,0.34,0.489,0.514C25.213,60.494,23.753,60.693,22.526,60.152z M25.341,61.33
			c0.469-0.395,0.976-0.711,1.525-0.996c0.281,0.285,0.551,0.559,0.855,0.867C26.909,61.438,26.141,61.604,25.341,61.33z
			 M43.067,61.096c0.251-0.262,0.495-0.516,0.76-0.789c0.402,0.26,0.792,0.51,1.194,0.766C44.671,61.324,43.61,61.334,43.067,61.096
			z M44.527,59.713c0.245-0.248,0.486-0.498,0.734-0.74c0.033-0.033,0.099-0.055,0.147-0.051c0.93,0.074,1.743,0.412,2.416,1.076
			C47.163,60.531,45.329,60.369,44.527,59.713z M48.039,56.84h0.128l-0.009,0.031L48.039,56.84z M48.032,56.76
			c-0.264,0.336-0.577,0.613-0.972,0.785c-0.1,0.043-0.206,0.074-0.343,0.125c0-0.408,0-0.783,0-1.154
			c0-0.064,0.013-0.131,0.002-0.191c-0.054-0.291,0.047-0.545,0.174-0.799c0.269-0.531,0.632-0.994,1.06-1.4
			c0.443-0.418,0.916-0.807,1.377-1.207c0.04-0.035,0.087-0.059,0.172-0.117c-0.037,0.16-0.06,0.275-0.09,0.389
			c-0.174,0.643-0.336,1.291-0.531,1.928C48.699,55.713,48.423,56.27,48.032,56.76z M54.563,47.568
			c0.145,0.264,0.199,0.553,0.224,0.844c0.075,0.887-0.084,1.74-0.371,2.576c-0.021,0.061-0.05,0.117-0.084,0.172
			c-0.291,0.457-0.642,0.863-1.024,1.293C52.931,51.139,53.667,48.293,54.563,47.568z M57.074,51.432
			c0.265-0.037,0.533-0.068,0.812-0.104c-0.192,0.273-1.415,0.982-2.282,1.334c-0.826,0.338-1.673,0.572-2.618,0.605
			c0.141-0.285,0.322-0.469,0.526-0.633c0.383-0.305,0.821-0.508,1.278-0.672C55.53,51.697,56.295,51.535,57.074,51.432z
			 M59.331,49.002c-0.269,0.285-0.595,0.5-0.933,0.695c-0.801,0.463-1.656,0.799-2.526,1.098c-0.368,0.127-0.741,0.236-1.112,0.35
			c-0.05,0.018-0.103,0.021-0.173,0.035c0.017-0.186,0.092-0.33,0.205-0.434c0.213-0.201,0.431-0.402,0.673-0.563
			c0.566-0.373,1.188-0.643,1.827-0.857c0.721-0.242,1.451-0.459,2.178-0.682c0.035-0.012,0.073-0.014,0.172-0.033
			C59.514,48.771,59.431,48.896,59.331,49.002z M60.544,46.498c-0.224,0.338-0.513,0.611-0.879,0.783
			c-0.996,0.467-1.99,0.941-3.051,1.252c-0.021,0.006-0.045,0.004-0.091,0.008c0.021-0.055,0.03-0.098,0.052-0.131
			c0.286-0.465,0.638-0.871,1.078-1.195c0.335-0.248,0.702-0.412,1.119-0.492c0.566-0.107,1.122-0.273,1.683-0.414
			c0.058-0.016,0.118-0.025,0.229-0.049C60.621,46.367,60.586,46.434,60.544,46.498z M60.412,45.373
			c-0.374,0.416-0.824,0.721-1.359,0.883c-0.45,0.139-0.873,0.33-1.278,0.566c-0.041,0.021-0.083,0.041-0.167,0.082
			c0.016-0.123,0.018-0.213,0.041-0.299c0.094-0.346,0.299-0.625,0.541-0.883c0.312-0.332,0.669-0.607,1.047-0.857
			c0.602-0.4,1.242-0.729,1.901-1.021c0.042-0.02,0.084-0.031,0.152-0.057c-0.012,0.063-0.014,0.102-0.028,0.137
			C61.06,44.453,60.794,44.949,60.412,45.373z M60.64,43.465c-0.472,0.453-1.012,0.789-1.652,0.943
			c-0.075,0.02-0.152,0.029-0.256,0.049c-0.043-0.346,0.028-0.637,0.144-0.914c0.142-0.346,0.362-0.635,0.624-0.895
			c0.599-0.598,1.319-1.01,2.083-1.352c0.137-0.061,0.278-0.117,0.417-0.172c0.012-0.002,0.029,0.008,0.06,0.014
			c-0.007,0.029-0.01,0.057-0.02,0.086C61.729,42.066,61.295,42.836,60.64,43.465z"/>
		<path fill="#FFFFFF" d="M59.672,31.95h0.045c0.009-0.016,0.02-0.029,0.03-0.044C59.723,31.919,59.698,31.936,59.672,31.95z"/>
		<g>
			<path fill="#FFFFFF" d="M20.599,56.891c0.389,0.012,0.756,0.082,1.105,0.211c0.018-0.004,0.038-0.01,0.056-0.014l0.795-0.229
				c-0.148-0.18-0.281-0.373-0.397-0.57c-0.008,0.074-0.03,0.154-0.072,0.236c-0.089,0.178-0.251,0.313-0.454,0.375l-0.194-0.602
				l-0.033,0.031l-0.34,0.492l-0.602-0.396c-1.361,0.104-3.214-0.084-4.396-0.809c0.064-0.027,0.115-0.055,0.169-0.07
				c0.896-0.234,1.805-0.35,2.729-0.289c0.233,0.016,0.464,0.045,0.69,0.086c-0.077-0.107-0.15-0.221-0.219-0.334
				c-0.175-0.023-0.315-0.047-0.455-0.064c-0.326-0.043-0.651-0.086-0.978-0.127c-0.627,0.033-1.266,0.137-1.937,0.313
				c-0.091,0.023-0.163,0.057-0.215,0.08c-0.013,0.006-0.026,0.01-0.04,0.016l-0.353,0.148l-0.831,0.342l1.09,0.668
				c0.669,0.41,1.463,0.643,2.188,0.773c0.28,0.049,0.549,0.084,0.797,0.109C19.306,56.986,19.939,56.869,20.599,56.891z"/>
		</g>
		<g>
			<path fill="#FFFFFF" d="M54.7,55.133c-0.037-0.016-0.091-0.041-0.163-0.059c-0.715-0.193-1.422-0.303-2.108-0.33
				c-0.197,0.027-0.395,0.059-0.593,0.088c-0.229,0.035-0.458,0.076-0.718,0.119c-0.069,0.109-0.14,0.219-0.217,0.326
				c0.155-0.029,0.313-0.051,0.472-0.068c1.012-0.098,2.009,0.018,2.989,0.281c0.031,0.008,0.059,0.021,0.088,0.035
				c0.007,0,0.011,0.01,0.035,0.035c-0.078,0.041-0.148,0.084-0.222,0.121c-0.631,0.311-1.3,0.498-1.993,0.602
				c-0.781,0.117-1.562,0.131-2.34,0.059c-0.002,0.004-0.004,0.006-0.006,0.006c-0.001,0.004-0.003,0.004-0.004,0.004l-0.223,0.236
				l-0.151,0.23l-0.249,0.008c-0.044,0.01-0.086,0.012-0.123,0.012h-0.033l-0.661,0.119l0.312,0.084
				c0.009,0.004,0.016,0.006,0.023,0.008c0.334-0.129,0.688-0.201,1.064-0.221c0.674-0.037,1.324,0.086,1.953,0.332
				c0.037,0.014,0.073,0.031,0.109,0.047c0.144-0.016,0.287-0.037,0.428-0.064c0.09-0.018,0.19-0.041,0.301-0.064
				c0.914-0.217,2.413-0.688,2.829-1.322c0.086-0.131-0.451-0.443-0.451-0.443h0c-0.029-0.031-0.191-0.115-0.338-0.176L54.7,55.133z
				"/>
		</g>
		<g>
			<polygon fill="#FFFFFF" points="48.039,56.84 48.159,56.871 48.167,56.84 			"/>
		</g>
		<path fill="#FFFFFF" d="M26.497,44.658c0.062,0.094,0.151,0.141,0.266,0.141c0.114,0,0.202-0.047,0.263-0.141
			c0.051-0.076,0.087-0.188,0.105-0.334c0.012-0.096,0.019-0.225,0.019-0.387c0-0.168-0.005-0.297-0.017-0.385
			c-0.018-0.145-0.053-0.256-0.105-0.334c-0.062-0.096-0.15-0.143-0.265-0.143c-0.114,0-0.201,0.047-0.264,0.143
			c-0.052,0.078-0.086,0.189-0.105,0.334c-0.012,0.096-0.019,0.225-0.019,0.385c0,0.17,0.005,0.299,0.017,0.387
			C26.411,44.471,26.446,44.582,26.497,44.658z"/>
		<path fill="#FFFFFF" d="M21.862,42.047c-0.88,0-1.594,0.836-1.594,1.869c0,1.031,0.714,1.865,1.594,1.865h4.833l-1.682,7.021
			l8.967,8.967l0.218-8.689h2.176l0.219,8.68l9.027-9.025l-1.678-6.953h4.759c0.881,0,1.594-0.834,1.594-1.865
			c0-0.945-0.598-1.721-1.374-1.848c-0.073-0.012-0.146-0.021-0.221-0.021 M29.169,44.441c-0.034-0.041-0.076-0.066-0.126-0.072
			l-0.689-0.086c-0.16-0.021-0.287-0.098-0.382-0.236c-0.089-0.125-0.134-0.277-0.134-0.455c0-0.188,0.068-0.35,0.203-0.484
			s0.297-0.201,0.486-0.201h1.549h2.065v0.086c-0.109,0-0.218,0.041-0.329,0.115c-0.125,0.09-0.187,0.195-0.187,0.314v1.031
			c0,0.123,0.062,0.227,0.186,0.314c0.11,0.078,0.22,0.117,0.331,0.117v0.086h-2.065v-0.086c0.109,0,0.219-0.039,0.329-0.117
			c0.125-0.09,0.188-0.193,0.188-0.314v-1.031c0-0.119-0.063-0.225-0.187-0.314c-0.109-0.074-0.22-0.115-0.33-0.115v0.516
			c-0.036-0.037-0.071-0.072-0.107-0.109c-0.089-0.088-0.177-0.156-0.262-0.209c-0.119-0.074-0.226-0.113-0.319-0.113h-0.517
			c-0.044,0-0.083,0.018-0.112,0.049c-0.03,0.033-0.05,0.074-0.06,0.125c-0.004,0.016-0.006,0.031-0.006,0.045
			c0,0.055,0.017,0.102,0.05,0.143c0.034,0.043,0.077,0.066,0.128,0.07l0.861,0.084c0.159,0.018,0.287,0.096,0.383,0.234
			c0.088,0.127,0.133,0.279,0.133,0.457c0,0.205-0.09,0.373-0.269,0.506c-0.165,0.121-0.363,0.182-0.592,0.182h-1.55v-0.688
			c0.036,0.043,0.069,0.088,0.104,0.133c0.088,0.104,0.174,0.188,0.256,0.248c0.119,0.09,0.229,0.135,0.328,0.135h0.517
			c0.045,0,0.082-0.016,0.111-0.049c0.03-0.031,0.05-0.072,0.061-0.123c0.003-0.018,0.005-0.031,0.005-0.045
			C29.221,44.531,29.203,44.482,29.169,44.441z M33.26,44.508c0.074,0.193,0.189,0.291,0.344,0.291c0.177,0,0.312-0.096,0.405-0.289
			c0.075-0.156,0.112-0.348,0.112-0.572l0.258,0.346c-0.098,0.207-0.208,0.365-0.333,0.475c-0.116,0.1-0.256,0.17-0.42,0.209
			c-0.133,0.031-0.313,0.045-0.537,0.045c-0.308,0-0.555-0.092-0.743-0.277c-0.194-0.193-0.291-0.459-0.291-0.797
			c0-0.348,0.087-0.611,0.26-0.797c0.174-0.184,0.432-0.275,0.773-0.275c0.068,0.004,0.15,0.006,0.246,0.012s0.25,0.012,0.465,0.018
			c0.216,0.008,0.38,0.012,0.494,0.012v0.859H34.12c0-0.199-0.044-0.359-0.132-0.486c-0.094-0.135-0.222-0.203-0.384-0.203
			c-0.106,0-0.194,0.047-0.263,0.141c-0.058,0.08-0.102,0.191-0.13,0.33c-0.024,0.121-0.036,0.25-0.036,0.391
			C33.174,44.17,33.203,44.359,33.26,44.508z M36.295,49.957h-2.019l0.104-4.176h1.809L36.295,49.957z M35.672,43.141
			c0.173-0.184,0.432-0.275,0.772-0.275c0.069,0.004,0.151,0.006,0.246,0.012c0.096,0.006,0.251,0.012,0.466,0.018
			c0.214,0.008,0.379,0.012,0.493,0.012h2.496c0.143,0,0.265,0.051,0.364,0.15c0.102,0.102,0.152,0.223,0.152,0.365
			c0,0.139-0.052,0.26-0.157,0.361c-0.104,0.104-0.225,0.154-0.359,0.154v0.086c0.196,0,0.325,0.074,0.393,0.225
			c0.034,0.137,0.069,0.275,0.104,0.414c0.044,0.148,0.137,0.223,0.277,0.223v0.086h-0.774c-0.159,0-0.299-0.047-0.417-0.143
			c-0.124-0.1-0.186-0.223-0.186-0.373v-0.172c0-0.082-0.037-0.145-0.109-0.193c-0.065-0.043-0.144-0.066-0.235-0.066v0.432
			c0,0.119,0.042,0.221,0.125,0.305c0.083,0.082,0.186,0.125,0.305,0.125v0.086h-1.911c-0.033,0-0.07,0.002-0.115,0.006
			c-0.117,0.008-0.225,0.02-0.325,0.037c-0.146,0.025-0.28,0.061-0.402,0.105v-0.133c-0.06,0.008-0.125,0.016-0.193,0.02
			c-0.069,0.004-0.148,0.006-0.237,0.006c-0.308,0-0.554-0.092-0.742-0.277c-0.194-0.193-0.292-0.459-0.292-0.797
			C35.411,43.59,35.498,43.326,35.672,43.141z M43.295,44.504c-0.125,0.148-0.298,0.266-0.516,0.348
			c-0.205,0.08-0.423,0.119-0.655,0.119c-0.364,0-0.676-0.088-0.939-0.264c-0.291-0.193-0.437-0.451-0.437-0.77
			c0-0.213,0.068-0.4,0.206-0.564c0.125-0.148,0.296-0.266,0.515-0.35c0.205-0.078,0.423-0.117,0.655-0.117
			c0.364,0,0.678,0.088,0.94,0.262c0.292,0.197,0.437,0.451,0.437,0.77C43.5,44.152,43.432,44.342,43.295,44.504z M48.779,43.838
			c-0.1,0.125-0.224,0.186-0.373,0.186h-0.947v0.432c0,0.119,0.042,0.221,0.126,0.305c0.083,0.082,0.185,0.125,0.304,0.125v0.086
			h-1.979v-0.086c0.136,0,0.255-0.039,0.356-0.117c0.107-0.082,0.16-0.186,0.16-0.313v-1.033c0-0.125-0.053-0.23-0.16-0.313
			c-0.052-0.041-0.108-0.07-0.169-0.09c-0.068,0.023-0.134,0.061-0.197,0.117c-0.107,0.092-0.159,0.189-0.159,0.285v0.947
			c0,0.146-0.051,0.283-0.153,0.408c-0.107,0.131-0.229,0.193-0.367,0.193h-0.946c-0.141,0-0.262-0.051-0.364-0.154
			c-0.102-0.1-0.153-0.223-0.153-0.363v-0.861c0-0.146-0.048-0.283-0.144-0.404c-0.103-0.131-0.227-0.195-0.373-0.195h-0.086v-0.086
			h2.754h0.43h2.065c0.142,0,0.264,0.051,0.364,0.15c0.102,0.102,0.152,0.223,0.152,0.365C48.923,43.58,48.875,43.721,48.779,43.838
			z M21.471,44.885c0.136,0,0.254-0.039,0.356-0.117c0.107-0.082,0.16-0.186,0.16-0.313v-1.033c0-0.125-0.053-0.23-0.16-0.313
			c-0.102-0.076-0.22-0.117-0.356-0.117v-0.086h1.376l0.431,0.859l0.343-0.859h1.12h0.344h2.84v0.086h-0.086
			c-0.126,0-0.244,0.049-0.354,0.145c-0.106,0.092-0.159,0.189-0.159,0.285v0.947c0,0.146-0.051,0.283-0.153,0.408
			c-0.106,0.131-0.229,0.193-0.367,0.193h-0.947c-0.14,0-0.261-0.051-0.363-0.154c-0.103-0.1-0.153-0.223-0.153-0.363v-0.861
			c0-0.146-0.048-0.283-0.143-0.404c-0.074-0.092-0.158-0.152-0.253-0.18c-0.08,0.018-0.153,0.051-0.218,0.1
			c-0.107,0.084-0.161,0.189-0.161,0.314v1.031c0,0.129,0.054,0.232,0.161,0.314c0.101,0.078,0.22,0.117,0.356,0.117v0.086h-1.894
			v-0.086c0.117,0,0.218-0.043,0.303-0.125c0.084-0.086,0.127-0.186,0.127-0.307v-1.031l-0.603,1.549h-0.258l-0.603-1.379v0.861
			c0,0.121,0.042,0.221,0.125,0.307c0.084,0.082,0.186,0.125,0.305,0.125v0.086h-1.118V44.885L21.471,44.885z"/>
		<path fill="#FFFFFF" d="M47.498,43.076c-0.017,0-0.029,0-0.038,0v0.775c0.007,0.002,0.016,0.004,0.022,0.004
			c0.007,0,0.014,0,0.022,0c0.098,0,0.182-0.035,0.257-0.102c0.074-0.064,0.116-0.148,0.128-0.246c0-0.008,0.002-0.014,0.002-0.021
			c0-0.006,0-0.012,0-0.018c0-0.104-0.041-0.195-0.12-0.273C47.694,43.115,47.602,43.076,47.498,43.076z"/>
		<path fill="#FFFFFF" d="M45.444,43.219c-0.063-0.096-0.151-0.143-0.266-0.143c-0.113,0-0.201,0.047-0.263,0.143
			c-0.052,0.078-0.087,0.189-0.106,0.334c-0.012,0.096-0.018,0.225-0.018,0.385c0,0.17,0.006,0.299,0.017,0.387
			c0.019,0.146,0.054,0.258,0.105,0.334c0.062,0.094,0.15,0.141,0.266,0.141c0.113,0,0.201-0.047,0.262-0.141
			c0.052-0.076,0.087-0.188,0.105-0.334c0.012-0.096,0.02-0.225,0.02-0.387c0-0.168-0.006-0.297-0.018-0.385
			C45.531,43.408,45.496,43.297,45.444,43.219z"/>
		<path fill="#FFFFFF" d="M39.243,43.855c0.097,0,0.183-0.035,0.257-0.102c0.074-0.064,0.117-0.148,0.128-0.246
			c0.001-0.008,0.002-0.014,0.002-0.021c0-0.006,0-0.012,0-0.018c0-0.104-0.04-0.195-0.12-0.273c-0.078-0.08-0.17-0.119-0.274-0.119
			c-0.017,0-0.03,0-0.038,0v0.775c0.008,0.002,0.014,0.004,0.021,0.004S39.234,43.855,39.243,43.855z"/>
		<path fill="#FFFFFF" d="M36.875,44.789v-0.852c0.074,0.018,0.135,0.027,0.18,0.033c0.046,0.006,0.101,0.008,0.164,0.008
			c0.101,0,0.184,0,0.248-0.004c0.065,0,0.154-0.014,0.269-0.037v0.941c0.101-0.014,0.191-0.049,0.271-0.111
			c0.107-0.082,0.16-0.186,0.16-0.313v-1.033c0-0.125-0.053-0.23-0.16-0.313c-0.101-0.076-0.22-0.117-0.356-0.117v0.773h-0.172
			c0-0.199-0.045-0.359-0.134-0.486c-0.093-0.135-0.221-0.203-0.383-0.203c-0.106,0-0.194,0.047-0.263,0.141
			c-0.059,0.08-0.102,0.191-0.131,0.33c-0.024,0.121-0.036,0.25-0.036,0.391c0,0.209,0.023,0.385,0.069,0.527
			C36.657,44.645,36.75,44.754,36.875,44.789z"/>
		<path fill="#FFFFFF" d="M42.307,43.186c-0.039-0.072-0.1-0.109-0.183-0.109c-0.082,0-0.141,0.037-0.18,0.109
			c-0.035,0.064-0.056,0.152-0.065,0.266c-0.009,0.115-0.013,0.277-0.013,0.486c0,0.225,0.002,0.377,0.009,0.453
			c0.01,0.137,0.032,0.236,0.067,0.301c0.039,0.072,0.1,0.107,0.182,0.107s0.142-0.035,0.181-0.107
			c0.035-0.064,0.058-0.164,0.068-0.301c0.007-0.092,0.009-0.242,0.009-0.453c0-0.225-0.002-0.377-0.008-0.451
			C42.363,43.35,42.341,43.248,42.307,43.186z"/>
		<path fill="#FFFFFF" d="M20.34,27.685v2.771c0,0.319-0.168,0.601-0.503,0.842c-0.295,0.207-0.589,0.313-0.882,0.313v0.23h14.08
			v-0.23c-0.319,0-0.592-0.113-0.816-0.338c-0.225-0.224-0.336-0.497-0.336-0.816v-2.309l1.615,3.694h0.692l1.617-4.155v2.771
			c0,0.319-0.114,0.593-0.342,0.816c-0.228,0.225-0.498,0.338-0.812,0.338v0.23h5.077v-0.23c-0.366,0-0.684-0.105-0.956-0.313
			c-0.286-0.223-0.429-0.503-0.429-0.842v-2.771c0-0.337,0.144-0.617,0.429-0.84c0.271-0.208,0.59-0.314,0.956-0.314v-0.23h-3.924
			l-0.923,2.309l-1.154-2.309h-3.693v0.23c0.366,0,0.685,0.105,0.955,0.314c0.287,0.223,0.43,0.503,0.43,0.84v2.771
			c0,0.339-0.143,0.619-0.43,0.842c-0.087,0.065-0.178,0.122-0.274,0.167c-0.061-0.058-0.128-0.135-0.203-0.23
			c-0.198-0.25-0.358-0.51-0.478-0.778l-1.846-4.155h-2.309l-1.385,3.693c-0.125,0.336-0.246,0.6-0.36,0.793
			c-0.137,0.236-0.291,0.419-0.461,0.553c-0.021-0.014-0.043-0.031-0.065-0.043c-0.333-0.239-0.499-0.518-0.499-0.842v-2.771
			c0-0.319,0.168-0.599,0.504-0.84c0.294-0.208,0.589-0.314,0.881-0.314v-0.23h-5.54v0.23c0.295,0,0.591,0.105,0.887,0.314
			C20.174,27.083,20.34,27.362,20.34,27.685z M25.879,27.917l0.739,1.616h-1.364L25.879,27.917z M24.987,30.209
			c0.02-0.069,0.051-0.142,0.094-0.215h1.722c0.073,0.126,0.114,0.196,0.12,0.207c0.04,0.086,0.064,0.172,0.073,0.254
			c0.004,0.015,0.005,0.04,0.005,0.073c0,0.241-0.104,0.443-0.311,0.606c-0.208,0.163-0.446,0.244-0.713,0.244
			c-0.274,0-0.513-0.087-0.716-0.265s-0.305-0.397-0.305-0.658C24.957,30.364,24.967,30.282,24.987,30.209z"/>
		<path fill="#FFFFFF" d="M45.501,26.301v0.23h0.23c0.207,0,0.403,0.074,0.59,0.223c0.13,0.101,0.274,0.26,0.435,0.475
			c0.188,0.251,0.307,0.404,0.36,0.456v0.924c0,0.547-0.025,0.997-0.075,1.353c-0.07,0.504-0.196,0.892-0.377,1.157
			c-0.221,0.328-0.533,0.49-0.933,0.49H45.5v0.23h3.693v-0.23h-0.231c-0.367,0-0.684-0.105-0.956-0.313
			c-0.286-0.223-0.429-0.503-0.429-0.842v-2.309l2.769,3.694h1.848v-3.924c0-0.381,0.134-0.708,0.406-0.978
			c0.16-0.161,0.338-0.273,0.537-0.339c0.173,0.052,0.331,0.134,0.474,0.245c0.286,0.223,0.431,0.503,0.431,0.84v2.771
			c0,0.339-0.145,0.619-0.431,0.842c-0.27,0.207-0.589,0.313-0.955,0.313v0.23h5.539c0.764,0,1.416-0.271,1.958-0.813
			c0.542-0.542,0.813-1.193,0.813-1.958c0-0.763-0.271-1.416-0.813-1.958c-0.542-0.541-1.195-0.812-1.958-0.812h-8.079v0.23h0.231
			c0.381,0,0.707,0.136,0.979,0.408c0.271,0.27,0.405,0.596,0.405,0.978v1.154l-2.308-2.77H45.501z M57.922,31.107
			c-0.181,0.181-0.398,0.272-0.65,0.272H56.81v-4.617h0.462c0.258,0,0.478,0.092,0.656,0.271c0.177,0.183,0.267,0.4,0.267,0.651
			v2.771C58.195,30.707,58.104,30.923,57.922,31.107z"/>
		<path fill="#FFFFFF" d="M39.547,27.552c-0.37,0.438-0.555,0.942-0.555,1.52c0,0.852,0.391,1.539,1.173,2.063
			c0.706,0.471,1.545,0.706,2.521,0.706c0.621,0,1.208-0.105,1.759-0.318c0.585-0.225,1.044-0.537,1.381-0.932
			c0.369-0.438,0.554-0.945,0.554-1.519c0-0.854-0.391-1.542-1.173-2.065c-0.705-0.47-1.545-0.706-2.521-0.706
			c-0.622,0-1.208,0.106-1.759,0.318C40.342,26.843,39.882,27.155,39.547,27.552z M42.028,27.767
			c0.023-0.307,0.081-0.545,0.173-0.714c0.104-0.194,0.267-0.291,0.485-0.291c0.222,0,0.385,0.097,0.49,0.291
			c0.092,0.169,0.152,0.438,0.18,0.803c0.014,0.207,0.022,0.611,0.022,1.214c0,0.563-0.009,0.968-0.028,1.214
			c-0.027,0.367-0.086,0.633-0.179,0.804c-0.105,0.193-0.267,0.29-0.485,0.29c-0.222,0-0.385-0.097-0.489-0.29
			c-0.093-0.171-0.153-0.438-0.18-0.804c-0.016-0.206-0.023-0.61-0.023-1.214C41.994,28.506,42.005,28.073,42.028,27.767z"/>
		<path fill="#FFFFFF" d="M11.199,26.301v0.231c0.366,0,0.685,0.104,0.956,0.314c0.286,0.222,0.429,0.5,0.429,0.839v2.771
			c0,0.339-0.143,0.619-0.429,0.84c-0.271,0.209-0.589,0.314-0.956,0.314v0.23h5.54c0.763,0,1.416-0.271,1.958-0.813
			c0.542-0.542,0.812-1.193,0.812-1.956c0-0.764-0.271-1.417-0.812-1.959c-0.542-0.541-1.195-0.812-1.958-0.812H11.199z
			 M16.471,27.035c0.179,0.181,0.268,0.397,0.268,0.65v2.771c0,0.251-0.09,0.469-0.272,0.651c-0.181,0.181-0.398,0.272-0.651,0.272
			h-0.461v-4.617h0.461C16.074,26.762,16.292,26.854,16.471,27.035z"/>
		<path fill="#FFFFFF" d="M42.62,32.407v0.383h0.383c0.632,0,1.173,0.224,1.623,0.672c0.449,0.45,0.673,0.99,0.673,1.623v1.913
			l-3.827-4.591h-6.504v0.382h0.382c0.342,0,0.668,0.124,0.98,0.368c0.214,0.168,0.454,0.431,0.718,0.788
			c0.312,0.419,0.511,0.672,0.598,0.76v1.53c0,0.906-0.042,1.654-0.123,2.24c-0.117,0.836-0.326,1.477-0.626,1.922
			c-0.208,0.305-0.463,0.523-0.765,0.658c-0.122-0.105-0.267-0.262-0.434-0.471c-0.329-0.418-0.593-0.846-0.792-1.289l-3.061-6.888
			h-3.826l-2.296,6.122c-0.209,0.555-0.408,0.996-0.596,1.316c-0.251,0.428-0.533,0.754-0.85,0.979
			c-0.271,0.195-0.575,0.314-0.91,0.361v-3.805h-0.383l-4.209,3.443h-0.382v-6.12c0-0.532,0.278-0.996,0.834-1.395
			c0.489-0.346,0.977-0.52,1.461-0.52v-0.383h-9.183v0.383c0.491,0,0.979,0.173,1.47,0.52c0.551,0.392,0.826,0.858,0.826,1.395v4.59
			c0,0.529-0.278,0.994-0.834,1.393c-0.489,0.348-0.977,0.52-1.461,0.52v0.383H41.09v-0.383h-0.382c-0.607,0-1.135-0.172-1.584-0.52
			c-0.474-0.367-0.712-0.832-0.712-1.393v-3.828l4.592,6.123h3.061v-6.504c0-0.632,0.224-1.172,0.673-1.623
			c0.379-0.378,0.823-0.597,1.333-0.657c0,0,0,0,0.001,0c0.61,0.05,1.069,0.22,1.375,0.504c0.336,0.313,0.504,0.775,0.504,1.395
			v4.59c0,0.627-0.155,1.092-0.466,1.393c-0.362,0.348-0.972,0.52-1.828,0.52v0.383h11.861v-4.209h-0.382l-4.209,3.443h-0.383
			v-3.826l2.296,1.914v-4.208l-2.296,1.912v-3.444h0.765l3.828,3.062h0.382v-3.827H42.62z M28.021,35.086l1.225,2.677h-2.262
			L28.021,35.086z M29.363,40.418c-0.345,0.271-0.739,0.406-1.182,0.406c-0.455,0-0.849-0.146-1.186-0.439s-0.505-0.656-0.505-1.09
			c0-0.152,0.018-0.289,0.05-0.406c0.033-0.117,0.085-0.238,0.157-0.359h2.854c0.123,0.209,0.189,0.324,0.199,0.344
			c0.067,0.143,0.108,0.283,0.123,0.422c0.005,0.023,0.008,0.066,0.008,0.123C29.88,39.814,29.707,40.146,29.363,40.418z"/>
	</g>
</g>
</svg>
